{
    "legacy_addon_id": "",
    "title": "[AnzahTools] Last Member Online",
    "description": "",
    "version_id": 1020170,
    "version_string": "1.2.1",
    "dev": "AnzahTools",
    "dev_url": "https://anzah.tools",
    "faq_url": "",
    "support_url": "https://xenforo.com/community/resources/last-member-online.6757",
    "extra_urls": [],
    "require": {
        "XF": [
            2000010,
            "XenForo 2.0.0+"
        ],
        "php": [
            "5.6.0",
            "PHP 5.6.0+"
        ]
    },
    "icon": "fa-hourglass"
}